Practica 2
…
report_case3

## # A tibble: 31 x 4
##     year suicides_no population suicides_100k_pop
##    <int>       <dbl>      <dbl>             <dbl>
##  1  1985        2514   35997000              6.98
##  2  1986        2755   36223000              7.61
##  3  1987        2804   36425700              7.70
##  4  1988        2960   36597300              8.09
##  5  1989        2987   36740400              8.13
##  6  1990        2939   36861400              7.97
##  7  1991        2916   36958100              7.89
##  8  1992        2786   37000900              7.53
##  9  1993        3037   37122100              8.18
## 10  1994        3171   37203100              8.52
## #  with 21 more rows
…
